{
    "title": "Savage Worlds Advanced Edition Core Rules",
    "authors": [
        "Pinnacle Entertainment Group"
    ],
    "input_config": {
        "table_handling": [
            {
                "pages": [
                    "7-205", "!79"
                ],
                "header_fonts": [
                    {
                        "name": "Quatro",
                        "min_font_size": 7.9,
                        "max_font_size": 8.1,
                        "colours": [
                            {
                                "red": 255,
                                "green": 255,
                                "blue": 255
                            }
                        ],
                        "bold": true
                    }
                ],
                "cell_fonts": [
                    {
                        "name": "PalatinoLinotype",
                        "min_font_size": 8.9,
                        "max_font_size": 9.1,
                        "colours": [
                            {
                                "red": 0,
                                "green": 0,
                                "blue": 0
                            }
                        ]
                    },
                    {
                        "name": "Quatro",
                        "min_font_size": 7.9,
                        "max_font_size": 8.1,
                        "colours": [
                            {
                                "red": 0,
                                "green": 0,
                                "blue": 0
                            }
                        ]
                    }
                ]
            }
        ],
        "laparams": {
            "char_margin": 4
        },
        "font_mapping": {
            ".*\\+(PalatinoLinotype)-Roman": {},
            ".*\\+(QuatroSlab)-Bold": {
                "bold": true
            },
            ".*\\+(RockSalt)": {},
            ".*\\+(PalatinoLinotype)-Bold": {
                "bold": true
            },
            ".*\\+(Google-spies)": {},
            ".*\\+(QuatroSlab)-SemiBold": {
                "bold": true
            },
            ".*\\+(PalatinoLinotype)-Italic": {
                "italic": true
            },
            ".*\\+(Wingdings)-Regular": {},
            ".*\\+(Quatro)-SemiBold": {
                "bold": true
            },
            ".*\\+(PalatinoLinotype)-BoldItalic": {
                "bold": true,
                "italic": true
            },
            ".*\\+(Quatro)-Book": {},
            ".*\\+(Google-spies-extended)": {},
            ".*\\+(Quatro)-Bold": {
                "bold": true
            },
            ".*\\+(TrajanPro)-Bold": {
                "bold": true
            },
            ".*\\+(MinionPro)-Regular": {},
            ".*\\+(SavageWords)-Regular": {},
            ".*\\+(SymbolMT)": {},
            ".*\\+(Quatro)-BookItalic": {
                "italic": true
            },
            ".*\\+(PalatinoLinotype),Bold": {
                "bold": true
            }
        },
        "layouts": [
            {
                "notes": "title",
                "pages": [
                    "7-8",
                    "11",
                    "67",
                    "89",
                    "113",
                    "149",
                    "177",
                    "195"
                ],
                "x_bounds": [
                    30.0,
                    450.0
                ],
                "y_bounds": [
                    31.0,
                    730.0
                ],
                "sections": [
                    {
                        "y_bounds": [
                            500.0,
                            730.0
                        ]
                    },
                    {
                        "x_bounds": [
                            0.0,
                            240.0
                        ],
                        "y_bounds": [
                            31.0,
                            500.0
                        ]
                    },
                    {
                        "x_bounds": [
                            240.0,
                            450.0
                        ],
                        "y_bounds": [
                            31.0,
                            500.0
                        ]
                    }
                ]
            },
            {
                "notes": "Note on bottom",
                "pages": [
                    "9",
                    "83",
                    "151"
                ],
                "x_bounds": [
                    30.0,
                    450.0
                ],
                "y_bounds": [
                    31.0,
                    730.0
                ],
                "sections": [
                    {
                        "x_bounds": [
                            0.0,
                            240.0
                        ],
                        "y_bounds": [
                            70.0,
                            730.0
                        ]
                    },
                    {
                        "x_bounds": [
                            240.0,
                            450.0
                        ],
                        "y_bounds": [
                            70.0,
                            730.0
                        ]
                    },
                    {
                        "y_bounds": [
                            31.0,
                            70.0
                        ]
                    }
                ]
            },
            {
                "notes": "Familiarization",
                "pages": [
                    "38"
                ],
                "x_bounds": [
                    30.0,
                    450.0
                ],
                "y_bounds": [
                    31.0,
                    730.0
                ],
                "sections": [
                    {
                        "y_bounds": [
                            410.0,
                            730.0
                        ]
                    },
                    {
                        "x_bounds": [
                            0.0,
                            240.0
                        ],
                        "y_bounds": [
                            31,
                            410.0
                        ]
                    },
                    {
                        "x_bounds": [
                            240.0,
                            450.0
                        ],
                        "y_bounds": [
                            31,
                            410.0
                        ]
                    }
                ]
            },
            {
                "notes": "Ammo Page",
                "pages": [
                    "70"
                ],
                "x_bounds": [
                    30.0,
                    450.0
                ],
                "y_bounds": [
                    31.0,
                    730.0
                ],
                "sections": [
                    {
                        "x_bounds": [
                            0.0,
                            240.0
                        ],
                        "y_bounds": [
                            260.0,
                            730.0
                        ]
                    },
                    {
                        "x_bounds": [
                            240.0,
                            450.0
                        ],
                        "y_bounds": [
                            260.0,
                            730.0
                        ]
                    },
                    {
                        "y_bounds": [
                            31.0,
                            260.0
                        ]
                    }
                ]
            },
            {
                "notes": "Ammo Page",
                "pages": [
                    "92"
                ],
                "x_bounds": [
                    30.0,
                    450.0
                ],
                "y_bounds": [
                    31.0,
                    730.0
                ],
                "sections": [
                    {
                        "x_bounds": [
                            0.0,
                            240.0
                        ],
                        "y_bounds": [
                            325.0,
                            730.0
                        ]
                    },
                    {
                        "x_bounds": [
                            240.0,
                            450.0
                        ],
                        "y_bounds": [
                            325.0,
                            730.0
                        ]
                    },
                    {
                        "y_bounds": [
                            31.0,
                            325.0
                        ]
                    }
                ]
            },
            {
                "notes": "Shaken Page",
                "pages": [
                    "96"
                ],
                "x_bounds": [
                    30.0,
                    450.0
                ],
                "y_bounds": [
                    31.0,
                    730.0
                ],
                "sections": [
                    {
                        "x_bounds": [
                            0.0,
                            240.0
                        ],
                        "y_bounds": [
                            290.0,
                            730.0
                        ]
                    },
                    {
                        "x_bounds": [
                            240.0,
                            450.0
                        ],
                        "y_bounds": [
                            290.0,
                            730.0
                        ]
                    },
                    {
                        "y_bounds": [
                            31.0,
                            290.0
                        ]
                    }
                ]
            },
            {
                "notes": "Injury Page",
                "pages": [
                    "97"
                ],
                "x_bounds": [
                    30.0,
                    450.0
                ],
                "y_bounds": [
                    31.0,
                    730.0
                ],
                "sections": [
                    {
                        "y_bounds": [
                            470.0,
                            730.0
                        ]
                    },
                    {
                        "x_bounds": [
                            0.0,
                            240.0
                        ],
                        "y_bounds": [
                            31.0,
                            470.0
                        ]
                    },
                    {
                        "x_bounds": [
                            240.0,
                            450.0
                        ],
                        "y_bounds": [
                            31.0,
                            470.0
                        ]
                    }
                ]
            },
            {
                "notes": "Penalties Page",
                "pages": [
                    "104"
                ],
                "x_bounds": [
                    30.0,
                    450.0
                ],
                "y_bounds": [
                    31.0,
                    730.0
                ],
                "sections": [
                    {
                        "x_bounds": [
                            0.0,
                            240.0
                        ],
                        "y_bounds": [
                            140.0,
                            730.0
                        ]
                    },
                    {
                        "x_bounds": [
                            240.0,
                            450.0
                        ],
                        "y_bounds": [
                            140.0,
                            730.0
                        ]
                    },
                    {
                        "y_bounds": [
                            31.0,
                            140.0
                        ]
                    }
                ]
            },
            {
                "notes": "Ninja Foot Chase Page",
                "pages": [
                    "116"
                ],
                "x_bounds": [
                    30.0,
                    450.0
                ],
                "y_bounds": [
                    31.0,
                    730.0
                ],
                "sections": [
                    {
                        "y_bounds": [
                            545.0,
                            730.0
                        ]
                    },
                    {
                        "x_bounds": [
                            0.0,
                            240.0
                        ],
                        "y_bounds": [
                            31.0,
                            545.0
                        ]
                    },
                    {
                        "x_bounds": [
                            240.0,
                            450.0
                        ],
                        "y_bounds": [
                            31.0,
                            545.0
                        ]
                    }
                ]
            },
            {
                "notes": "Fixed Weapons Page",
                "pages": [
                    "119"
                ],
                "x_bounds": [
                    30.0,
                    450.0
                ],
                "y_bounds": [
                    31.0,
                    730.0
                ],
                "sections": [
                    {
                        "x_bounds": [
                            0.0,
                            240.0
                        ],
                        "y_bounds": [
                            90.0,
                            730.0
                        ]
                    },
                    {
                        "x_bounds": [
                            240.0,
                            450.0
                        ],
                        "y_bounds": [
                            90.0,
                            730.0
                        ]
                    },
                    {
                        "y_bounds": [
                            31.0,
                            90.0
                        ]
                    }
                ]
            },
            {
                "notes": "Out of Control Page",
                "pages": [
                    "121"
                ],
                "x_bounds": [
                    30.0,
                    450.0
                ],
                "y_bounds": [
                    31.0,
                    730.0
                ],
                "sections": [
                    {
                        "y_bounds": [
                            335.0,
                            730.0
                        ]
                    },
                    {
                        "x_bounds": [
                            0.0,
                            240.0
                        ],
                        "y_bounds": [
                            31.0,
                            335.0
                        ]
                    },
                    {
                        "x_bounds": [
                            240.0,
                            450.0
                        ],
                        "y_bounds": [
                            31.0,
                            335.0
                        ]
                    }
                ]
            },
            {
                "notes": "Vehicles on Tabletop",
                "pages": [
                    "122"
                ],
                "x_bounds": [
                    30.0,
                    450.0
                ],
                "y_bounds": [
                    31.0,
                    730.0
                ],
                "sections": [
                    {
                        "x_bounds": [
                            0.0,
                            240.0
                        ],
                        "y_bounds": [
                            415.0,
                            730.0
                        ]
                    },
                    {
                        "x_bounds": [
                            240.0,
                            450.0
                        ],
                        "y_bounds": [
                            415.0,
                            730.0
                        ]
                    },
                    {
                        "y_bounds": [
                            31.0,
                            415.0
                        ]
                    }
                ]
            },
            {
                "notes": "Disease Categories",
                "pages": [
                    "128"
                ],
                "x_bounds": [
                    30.0,
                    450.0
                ],
                "y_bounds": [
                    31.0,
                    730.0
                ],
                "sections": [
                    {
                        "x_bounds": [
                            0.0,
                            240.0
                        ],
                        "y_bounds": [
                            240.0,
                            730.0
                        ]
                    },
                    {
                        "x_bounds": [
                            240.0,
                            450.0
                        ],
                        "y_bounds": [
                            240.0,
                            730.0
                        ]
                    },
                    {
                        "y_bounds": [
                            31.0,
                            240.0
                        ]
                    }
                ]
            },
            {
                "notes": "Social Conflict Page",
                "pages": [
                    "145"
                ],
                "x_bounds": [
                    30.0,
                    450.0
                ],
                "y_bounds": [
                    31.0,
                    730.0
                ],
                "sections": [
                    {
                        "x_bounds": [
                            0.0,
                            240.0
                        ],
                        "y_bounds": [
                            170.0,
                            730.0
                        ]
                    },
                    {
                        "x_bounds": [
                            240.0,
                            450.0
                        ],
                        "y_bounds": [
                            170.0,
                            730.0
                        ]
                    },
                    {
                        "y_bounds": [
                            31.0,
                            170.0
                        ]
                    }
                ]
            },
            {
                "notes": "Weird margins",
                "pages": [
                    "171"
                ],
                "x_bounds": [
                    30.0,
                    450.0
                ],
                "y_bounds": [
                    31.0,
                    730.0
                ],
                "sections": [
                    {
                        "x_bounds": [
                            0.0,
                            230.0
                        ]
                    },
                    {
                        "x_bounds": [
                            230.0,
                            450.0
                        ]
                    }
                ]
            },
            {
                "notes": "Note on bottom",
                "pages": [
                    "204"
                ],
                "x_bounds": [
                    30.0,
                    450.0
                ],
                "y_bounds": [
                    31.0,
                    730.0
                ],
                "sections": [
                    {
                        "x_bounds": [
                            0.0,
                            240.0
                        ],
                        "y_bounds": [
                            100.0,
                            730.0
                        ]
                    },
                    {
                        "x_bounds": [
                            240.0,
                            450.0
                        ],
                        "y_bounds": [
                            100.0,
                            730.0
                        ]
                    },
                    {
                        "y_bounds": [
                            31.0,
                            100.0
                        ]
                    }
                ]
            },
            {
                "notes": "Full pages",
                "pages": [
                    "15-23",
                    "57-65",
                    "71-82",
                    "85-87",
                    "144",
                    "174-175",
                    "181",
                    "205"
                ],
                "x_bounds": [
                    30.0,
                    450.0
                ],
                "y_bounds": [
                    31.0,
                    730.0
                ]
            },
            {
                "notes": "contents",
                "pages": [
                    "7-205"
                ],
                "x_bounds": [
                    30.0,
                    450.0
                ],
                "y_bounds": [
                    31.0,
                    730.0
                ],
                "sections": [
                    {
                        "x_bounds": [
                            0.0,
                            240.0
                        ]
                    },
                    {
                        "x_bounds": [
                            240.0,
                            450.0
                        ]
                    }
                ]
            }
        ]
    },
    "extractors": [
        {
            "pages": [
                "7-205"
            ],
            "styles": [
                {
                    "style": "skip",
                    "fonts": [
                        {"name": "Wingdings"}
                    ]
                },
                {
                    "style": "header1",
                    "fonts": [
                        {
                            "min_font_size": 23.9
                        }
                    ]
                },
                {
                    "style": "header2",
                    "fonts": [
                        {
                            "min_font_size": 17.9
                        }
                    ]
                },
                {
                    "style": "header3",
                    "fonts": [
                        {
                            "min_font_size": 11.9
                        }
                    ]
                },
                {
                    "style": "quote",
                    "fonts": [
                        {
                            "name": "RockSalt"
                        }
                    ]
                },
                {
                    "style": "paragraph"
                }
            ]
        }
    ]
}