{
    "title": "Warhammer 40k - Wrath & Glory - Rain of Mercy (Quickstart)",
    "authors": [
        "Cubicle 7"
    ],
    "input_config": {
        "font_mapping": {
            ".*\\+(CaxtonStd)-Book": {
            },
            ".*\\+(PrioriSerifOT)-Bold": {
                "bold": true
            },
            ".*\\+(CaxtonStd)-Bold": {
                "bold": true
            },
            ".*\\+(CaxtonStd)-BookItalic": {
                "italic": true
            },
            ".*\\+(DemocraticaOT)-Bold": {
                "bold": true
            },
            ".*\\+(onlyskulls)": {},
            ".*\\+(QuadratSerial)": {},
            ".*\\+(CaxtonStd)-Bold-SC700": {
                "bold": true
            },
            ".*\\+(CaxtonStd)-Book-SC700": {},
            ".*\\+(PrioriSansOT)-Bold": {
                "bold": true
            }
        },
        "layouts": [
            {
                "notes": "Intro",
                "pages": [
                    "2"
                ],
                "x_bounds": [
                    90.0,
                    550.0
                ],
                "y_bounds": [
                    20.0,
                    430.0
                ],
                "sections": [
                    {
                        "x_bounds": [
                            90.0,
                            320.0
                        ]
                    },
                    {
                        "x_bounds": [
                            320.0,
                            550.0
                        ]
                    }
                ]
            },
            {
                "notes": "Cut Before Adventure",
                "pages": [
                    "8"
                ],
                "x_bounds": [
                    90.0,
                    320.0
                ],
                "y_bounds": [
                    20.0,
                    750.0
                ],
                "sections": [
                    {
                        "x_bounds": [
                            90.0,
                            320.0
                        ]
                    }
                ]
            },
            {
                "notes": "Contents (Even)",
                "pages": [
                    "even:3-16"
                ],
                "x_bounds": [
                    90.0,
                    550.0
                ],
                "y_bounds": [
                    20.0,
                    750.0
                ],
                "sections": [
                    {
                        "x_bounds": [
                            90.0,
                            320.0
                        ]
                    },
                    {
                        "x_bounds": [
                            320.0,
                            550.0
                        ]
                    }
                ]
            },
            {
                "notes": "Contents (Odd)",
                "pages": [
                    "odd:3-16"
                ],
                "x_bounds": [
                    60.0,
                    525.0
                ],
                "y_bounds": [
                    20.0,
                    750.0
                ],
                "sections": [
                    {
                        "x_bounds": [
                            60.0,
                            295.0
                        ]
                    },
                    {
                        "x_bounds": [
                            295.0,
                            525.0
                        ]
                    }
                ]
            }
        ]
    },
    "transforms": {
        "replacements": {
            "text": [
                {
                    "font_name": "onlyskulls",
                    "find": "u",
                    "replace": "•"
                }
            ]
        }
    },
    "extractors": [
        {
            "pages": [
                "2-8"
            ],
            "styles": [
                {
                    "style": "header1",
                    "fonts": [
                        {
                            "min_font_size": 21.9
                        }
                    ]
                },
                {
                    "style": "header2",
                    "fonts": [
                        {
                            "min_font_size": 18.9
                        }
                    ]
                },
                {
                    "style": "paragraph"
                }
            ]
        }
    ]
}